{
  "$schema": "https://docs.renovatebot.com/renovate-schema.json",
  "extends": [
    "config:recommended"
  ],
  "regexManagers": [
    {
      "fileMatch": [
        "(^|/)Dockerfile$",
        "(^|/)Dockerfile\\.[^/]*$"
      ],
      "matchStrings": [
        "#\\srenovate:\\sdatasource=(?<datasource>.*?) depName=(?<depName>.*?)( versioning=(?<versioning>.*?))?( extractVersion=(?<extractVersion>.*?))?\\s(ENV|ARG) .*?_VERSION=(?<currentValue>.*)\\s"
      ]
    }
  ]
}
